/* XPM */
static char * top_right_inactive = {
"2 14 3 1", 
".	c None", 
"+	c #000000 s inactive_shadow_2", 
"%	c #000000 s inactive_color_2", 
"..", 
"+.", 
"%+", 
"%+", 
"%+", 
"%+", 
"%+", 
"%+", 
"%+", 
"%+", 
"%+", 
"%+", 
"%+", 
"%+", 
};