/* XPM */
static char * maximize_toggled_prelight = {
"18 14 4 1", 
".	c None", 
"=	c #3C3C3C", 
"@	c #000000", 
"+	c #FFFFFF", 
"..................", 
"..................", 
"==================", 
"==================", 
"====@@@@@@@@@@====", 
"====@++++++++@====", 
"====@++++++++@====", 
"====@+@@@@@@+@====", 
"====@+@====@+@====", 
"====@+@====@+@====", 
"====@+@@@@@@+@====", 
"====@++++++++@====", 
"====@@@@@@@@@@====", 
"==================", 
};