/* XPM */
static char * shade_toggled_inactive = {
"18 14 4 1", 
".	c None", 
"=	c #3C3C3C", 
"@	c #3C3C3C", 
"+	c #A1A1A1", 
"..................", 
"..................", 
"==================", 
"========@@========", 
"=======@++@=======", 
"=======@++@=======", 
"=====@@@++@@@=====", 
"====@++@++@++@====", 
"====@++++++++@====", 
"=====@++++++@=====", 
"======@++++@======", 
"=======@++@=======", 
"========@@========", 
"==================", 
};